2850 9350 262
5453 12965 268
11101 18071 279
15831 22666 279
22867 28136 308
27181 32832 285
34235 39087 324
37672 44021 306
40914 49937 314
47282 52368 314
52364 59843 340
56370 61689 335
64494 68245 312
67704 71108 312
72581 75444 325
76680 80430 351
81146 87133 333
89747 93599 333
91556 96930 328
96265 104423 341
100066 108446 354
108607 114301 323
112533 116279 349
119674 123448 336
121217 126956 336
125816 134933 344
131799 137186 344
136622 142645 375
141783 145678 375
145105 150717 370
152474 156785 383
157499 164972 370
160270 168599 370
168571 171826 334
170529 179836 347
177601 181948 365
183283 186209 329
187601 190816 360
192488 197276 360
195616 200057 329
204232 207784 373
206342 212384 373
211323 219317 386
216381 223106 355
224995 226487 368
225175 233822 443
234624 237675 350
238794 244895 368
241274 247366 337
246721 253155 350
252202 259323 363
255103 260485 345
261884 267705 407
267654 274372 407
274981 279622 389
275782 280565 389
282407 287124 376
289301 293730 358
291441 297035 358
298188 302789 371
303522 308364 371
306611 314498 384
311039 315405 384
319393 322313 371
324123 327467 384
326820 331326 353
333142 336924 366
338163 340026 366
344629 347169 441
345750 350962 441
351792 356532 379
357879 364199 410
360009 367181 410
367929 372802 392
374216 376117 361
375591 384090 423
384481 388554 348
388588 391872 436
390312 399334 405
395537 404435 387
401801 407358 405
405761 414943 449
414282 415277 374
416321 420263 387
422446 427071 418
426225 434238 387
434956 439104 400
438437 444965 400
442637 447718 356
449119 451853 387
450188 456063 387
457295 461021 338
464617 467236 369
467894 471281 382
471570 479783 382
475717 484723 413
482141 487830 382
486018 492775 426
494459 497339 351
498038 501906 395
504410 505615 364
506144 514366 470
511072 515934 470
515683 523709 439
520004 529803 408
526915 530192 377
530866 539210 377
536214 541835 408
541446 545460 359
548117 554368 421
550243 555186 421
559091 563737 359
564368 565109 421
566512 573828 377
572448 579551 390
575734 583211 390
581518 588230 434
588929 592590 403
594164 599613 372
596300 600521 372
600768 608215 403
605713 611634 403
613777 618279 447
619821 621576 372
623739 627938 509
625944 630335 509
634476 635036 310
639072 643845 416
641497 645584 416
647673 650298 385
651487 659759 429
658509 663006 354
662989 667438 442
665596 673506 398
673403 678248 385
679027 684171 380
682815 686092 380
687157 691593 380
694372 698331 367
698169 704463 411
701269 705465 504
706150 710746 380
710501 715222 411
715943 721999 411
722159 728616 411
727297 734998 380
734727 737158 424
739356 742716 393
740948 746305 362
747574 750704 393
754553 757953 362
756227 762369 380
764046 768385 468
765314 773418 468
771716 779835 437
779233 784337 362
780300 785384 362
786435 790802 406
791958 797378 468
799153 800469 375
802346 807802 406
805468 813425 406
811312 819824 450
816142 822260 450
822481 825068 375
827964 832035 419
833022 839192 525
835756 842068 525
843929 847422 419
846838 851997 419
852257 856071 419
857686 862557 370
862807 869122 388
869711 874766 432
872852 875216 388
875235 881551 432
884370 887055 445
889976 890682 339
893232 897470 370
897943 900713 383
903891 907259 445
909100 911913 476
912803 916208 370
915333 921732 432
923630 927171 476
925081 930887 476
934594 937768 414
939797 943754 383
943242 945860 383
948520 952446 414
951077 955107 414
958997 960447 352
962163 965326 414
966130 970395 365
972796 975425 383
977460 981687 427
984036 986561 427
989952 991840 321
992769 995285 365
995285 992769 365
